instructionCount,18
NONE,0
ALU,11
SHIFT,3
LOAD,0
STORE,0
BRANCH,2
JUMP,1
OTHER,1
NONE,0
sll,3
srl,0
sra,0
sllv,0
srlv,0
srav,0
jr,0
add,0
addu,0
sub,0
subu,0
and,0
or,0
xor,0
nor,0
slt,0
sltu,0
j,0
jal,1
jalr,0
mult,1
multu,0
div,1
divu,0
mfhi,1
mthi,0
mflo,3
mtlo,0
beq,0
bne,2
bgez,0
bgtz,0
blez,0
bltz,0
addi,2
addiu,1
slti,0
sltiu,0
andi,0
ori,1
xori,0
lui,1
lb,0
lh,0
lw,0
lbu,0
lhu,0
sb,0
sh,0
sw,0
syscall,1
break,0
loadStalls, 0
controlStalls, 0
iCacheMissRate, -nan
dCacheMissRate, -nan
